…
    ## Warning: Expected 3 pieces. Missing pieces filled with `NA` in 45 rows [1, 2, 3,
    ## 4, 5, 6, 7, 8, 9, 10, 11, 12, 13, 14, 15, 16, 17, 18, 19, 20, ...].

``` r
df_antibiotics2 
```

    ## # A tibble: 48 x 8
    ##    bacteria         genus     species  gram   min_MIC drug         MIC effective
    ##    <chr>            <chr>     <chr>    <chr>    <dbl> <chr>      <dbl> <lgl>    
    ##  1 Aerobacter aero… Aerobact… aerogen… negat…   1     penicil… 870     FALSE    
    ##  2 Aerobacter aero… Aerobact… aerogen… negat…   1     strepto…   1     FALSE    
    ##  3 Aerobacter aero… Aerobact… aerogen… negat…   1     neomycin   1.6   FALSE    
    ##  4 Brucella abortus Brucella  abortus  negat…   0.02  penicil…   1     FALSE    
    ##  5 Brucella abortus Brucella  abortus  negat…   0.02  strepto…   2     FALSE    
    ##  6 Brucella abortus Brucella  abortus  negat…   0.02  neomycin   0.02  TRUE     
    ##  7 Bacillus anthra… Bacillus  anthrac… posit…   0.001 penicil…   0.001 TRUE     
    ##  8 Bacillus anthra… Bacillus  anthrac… posit…   0.001 strepto…   0.01  TRUE     
    ##  9 Bacillus anthra… Bacillus  anthrac… posit…   0.001 neomycin   0.007 TRUE     
    ## 10 Diplococcus pne… Diplococ… pneumon… posit…   0.005 penicil…   0.005 TRUE     
    ## # … with 38 more rows
…
