…
    ## # A tibble: 1 x 1
    ##   `Counties worse than NYC`
    ##                       <dbl>
    ## 1                       171

``` r
df_worse_than_nyc_cases_perk_counties %>%
  arrange(desc(max_cases_perk))
```

    ## # A tibble: 22,148 x 12
    ##    date       location county state fips  cases deaths population cases_perk
    ##    <date>     <chr>    <chr>  <chr> <chr> <dbl>  <dbl>      <dbl>      <dbl>
    ##  1 2020-03-28 Trousda… Trous… Tenn… 47169     1      0       9573       10.4
    ##  2 2020-03-29 Trousda… Trous… Tenn… 47169     1      0       9573       10.4
    ##  3 2020-03-30 Trousda… Trous… Tenn… 47169     3      0       9573       31.3
    ##  4 2020-03-31 Trousda… Trous… Tenn… 47169     3      0       9573       31.3
    ##  5 2020-04-01 Trousda… Trous… Tenn… 47169     5      1       9573       52.2
    ##  6 2020-04-02 Trousda… Trous… Tenn… 47169     6      1       9573       62.7
    ##  7 2020-04-03 Trousda… Trous… Tenn… 47169     7      1       9573       73.1
    ##  8 2020-04-04 Trousda… Trous… Tenn… 47169     7      1       9573       73.1
    ##  9 2020-04-05 Trousda… Trous… Tenn… 47169     8      1       9573       83.6
    ## 10 2020-04-06 Trousda… Trous… Tenn… 47169    11      1       9573      115. 
    ## # … with 22,138 more rows, and 3 more variables: deaths_perk <dbl>,
    ## #   max_cases_perk <dbl>, max_deaths_perk <dbl>
…
df_angela_counties 
```

    ## # A tibble: 729 x 12
    ##    date       location county state fips  cases deaths population cases_perk
    ##    <date>     <chr>    <chr>  <chr> <chr> <dbl>  <dbl>      <dbl>      <dbl>
    ##  1 2020-02-28 King, W… King   Wash… 53033     1      0    2163257     0.0462
    ##  2 2020-02-29 King, W… King   Wash… 53033     4      1    2163257     0.185 
    ##  3 2020-03-01 King, W… King   Wash… 53033    11      3    2163257     0.508 
    ##  4 2020-03-02 King, W… King   Wash… 53033    15      6    2163257     0.693 
    ##  5 2020-03-03 Wake, N… Wake   Nort… 37183     1      0    1046558     0.0956
    ##  6 2020-03-03 King, W… King   Wash… 53033    22     10    2163257     1.02  
    ##  7 2020-03-04 Wake, N… Wake   Nort… 37183     1      0    1046558     0.0956
    ##  8 2020-03-04 King, W… King   Wash… 53033    33     11    2163257     1.53  
    ##  9 2020-03-05 Wake, N… Wake   Nort… 37183     1      0    1046558     0.0956
    ## 10 2020-03-05 King, W… King   Wash… 53033    52     11    2163257     2.40  
    ## # … with 719 more rows, and 3 more variables: deaths_perk <dbl>,
    ## #   max_cases_perk <dbl>, max_deaths_perk <dbl>
…
  ) %>%
  select(
    date,
    county,
    state,
    cases,
    cases_per100k,
    deaths,
    deaths_per100k,
    population = pop_nyc
  )
df_nyc
```

    ## # A tibble: 153 x 8
    ##    date       county  state cases cases_per100k deaths deaths_per100k population
    ##    <date>     <chr>   <chr> <dbl>         <dbl>  <dbl>          <dbl>      <dbl>
    ##  1 2020-03-01 New Yo… New …     1        0.0118      0              0    8443713
    ##  2 2020-03-02 New Yo… New …     1        0.0118      0              0    8443713
    ##  3 2020-03-03 New Yo… New …     2        0.0237      0              0    8443713
    ##  4 2020-03-04 New Yo… New …     2        0.0237      0              0    8443713
    ##  5 2020-03-05 New Yo… New …     4        0.0474      0              0    8443713
    ##  6 2020-03-06 New Yo… New …     5        0.0592      0              0    8443713
    ##  7 2020-03-07 New Yo… New …    12        0.142       0              0    8443713
    ##  8 2020-03-08 New Yo… New …    14        0.166       0              0    8443713
    ##  9 2020-03-09 New Yo… New …    20        0.237       0              0    8443713
    ## 10 2020-03-10 New Yo… New …    37        0.438       0              0    8443713
    ## # … with 143 more rows
…
