…
    ## Parsed with column specification:
    ## cols(
    ##   .default = col_double(),
    ##   country = col_character()
    ## )
    ## See spec(...) for full column specifications.

``` r
food_consumption
```

    ## # A tibble: 1,430 x 4
    ##    country   food_category            consumption co2_emmission
    ##    <chr>     <chr>                          <dbl>         <dbl>
    ##  1 Argentina Pork                           10.5          37.2 
    ##  2 Argentina Poultry                        38.7          41.5 
    ##  3 Argentina Beef                           55.5        1712   
    ##  4 Argentina Lamb & Goat                     1.56         54.6 
    ##  5 Argentina Fish                            4.36          6.96
    ##  6 Argentina Eggs                           11.4          10.5 
    ##  7 Argentina Milk - inc. cheese            195.          278.  
    ##  8 Argentina Wheat and Wheat Products      103.           19.7 
    ##  9 Argentina Rice                            8.77         11.2 
    ## 10 Argentina Soybeans                        0             0   
    ## # … with 1,420 more rows

``` r
gapminder_pop_total
```

    ## # A tibble: 195 x 302
    ##    country `1800` `1801` `1802` `1803` `1804` `1805` `1806` `1807` `1808` `1809`
    ##    <chr>    <dbl>  <dbl>  <dbl>  <dbl>  <dbl>  <dbl>  <dbl>  <dbl>  <dbl>  <dbl>
    ##  1 Afghan… 3.28e6 3.28e6 3.28e6 3.28e6 3.28e6 3.28e6 3.28e6 3.28e6 3.28e6 3.28e6
    ##  2 Albania 4.00e5 4.02e5 4.04e5 4.05e5 4.07e5 4.09e5 4.11e5 4.13e5 4.14e5 4.16e5
    ##  3 Algeria 2.50e6 2.51e6 2.52e6 2.53e6 2.54e6 2.55e6 2.56e6 2.56e6 2.57e6 2.58e6
    ##  4 Andorra 2.65e3 2.65e3 2.65e3 2.65e3 2.65e3 2.65e3 2.65e3 2.65e3 2.65e3 2.65e3
    ##  5 Angola  1.57e6 1.57e6 1.57e6 1.57e6 1.57e6 1.57e6 1.57e6 1.57e6 1.57e6 1.57e6
    ##  6 Antigu… 3.70e4 3.70e4 3.70e4 3.70e4 3.70e4 3.70e4 3.70e4 3.70e4 3.70e4 3.70e4
    ##  7 Argent… 5.34e5 5.20e5 5.06e5 4.92e5 4.79e5 4.66e5 4.53e5 4.41e5 4.29e5 4.17e5
    ##  8 Armenia 4.13e5 4.13e5 4.13e5 4.13e5 4.13e5 4.13e5 4.13e5 4.13e5 4.13e5 4.13e5
    ##  9 Austra… 2.00e5 2.05e5 2.11e5 2.16e5 2.22e5 2.27e5 2.33e5 2.39e5 2.46e5 2.52e5
    ## 10 Austria 3.00e6 3.02e6 3.04e6 3.05e6 3.07e6 3.09e6 3.11e6 3.12e6 3.14e6 3.16e6
    ## # … with 185 more rows, and 291 more variables: `1810` <dbl>, `1811` <dbl>,
    ## #   `1812` <dbl>, `1813` <dbl>, `1814` <dbl>, `1815` <dbl>, `1816` <dbl>,
    ## #   `1817` <dbl>, `1818` <dbl>, `1819` <dbl>, `1820` <dbl>, `1821` <dbl>,
    ## #   `1822` <dbl>, `1823` <dbl>, `1824` <dbl>, `1825` <dbl>, `1826` <dbl>,
    ## #   `1827` <dbl>, `1828` <dbl>, `1829` <dbl>, `1830` <dbl>, `1831` <dbl>,
    ## #   `1832` <dbl>, `1833` <dbl>, `1834` <dbl>, `1835` <dbl>, `1836` <dbl>,
    ## #   `1837` <dbl>, `1838` <dbl>, `1839` <dbl>, `1840` <dbl>, `1841` <dbl>,
    ## #   `1842` <dbl>, `1843` <dbl>, `1844` <dbl>, `1845` <dbl>, `1846` <dbl>,
    ## #   `1847` <dbl>, `1848` <dbl>, `1849` <dbl>, `1850` <dbl>, `1851` <dbl>,
…
``` r
gapminder_geo
```

    ## # A tibble: 197 x 11
    ##    geo   name  four_regions eight_regions six_regions members_oecd_g77 Latitude
    ##    <chr> <chr> <chr>        <chr>         <chr>       <chr>               <dbl>
    ##  1 afg   Afgh… asia         asia_west     south_asia  g77                  33  
    ##  2 alb   Alba… europe       europe_east   europe_cen… others               41  
    ##  3 dza   Alge… africa       africa_north  middle_eas… g77                  28  
    ##  4 and   Ando… europe       europe_west   europe_cen… others               42.5
    ##  5 ago   Ango… africa       africa_sub_s… sub_sahara… g77                 -12.5
    ##  6 atg   Anti… americas     america_north america     g77                  17.0
    ##  7 arg   Arge… americas     america_south america     g77                 -34  
    ##  8 arm   Arme… europe       europe_east   europe_cen… others               40.2
    ##  9 aus   Aust… asia         east_asia_pa… east_asia_… oecd                -25  
    ## 10 aut   Aust… europe       europe_west   europe_cen… oecd                 47.3
    ## # … with 187 more rows, and 4 more variables: Longitude <dbl>, `UN member
    ## #   since` <chr>, `World bank region` <chr>, `World bank, 4 income groups
    ## #   2017` <chr>

``` r
gapminder_emissions
```

    ## # A tibble: 192 x 216
    ##    country `1800` `1801` `1802` `1803` `1804` `1805` `1806` `1807` `1808` `1809`
    ##    <chr>    <dbl>  <dbl>  <dbl>  <dbl>  <dbl>  <dbl>  <dbl>  <dbl>  <dbl>  <dbl>
    ##  1 Afghan…     NA     NA     NA     NA     NA     NA     NA NA         NA     NA
    ##  2 Albania     NA     NA     NA     NA     NA     NA     NA NA         NA     NA
    ##  3 Algeria     NA     NA     NA     NA     NA     NA     NA NA         NA     NA
    ##  4 Andorra     NA     NA     NA     NA     NA     NA     NA NA         NA     NA
    ##  5 Angola      NA     NA     NA     NA     NA     NA     NA NA         NA     NA
    ##  6 Antigu…     NA     NA     NA     NA     NA     NA     NA NA         NA     NA
    ##  7 Argent…     NA     NA     NA     NA     NA     NA     NA NA         NA     NA
    ##  8 Armenia     NA     NA     NA     NA     NA     NA     NA NA         NA     NA
    ##  9 Austra…     NA     NA     NA     NA     NA     NA     NA NA         NA     NA
    ## 10 Austria     NA     NA     NA     NA     NA     NA     NA  0.054     NA     NA
    ## # … with 182 more rows, and 205 more variables: `1810` <dbl>, `1811` <dbl>,
    ## #   `1812` <dbl>, `1813` <dbl>, `1814` <dbl>, `1815` <dbl>, `1816` <dbl>,
    ## #   `1817` <dbl>, `1818` <dbl>, `1819` <dbl>, `1820` <dbl>, `1821` <dbl>,
    ## #   `1822` <dbl>, `1823` <dbl>, `1824` <dbl>, `1825` <dbl>, `1826` <dbl>,
    ## #   `1827` <dbl>, `1828` <dbl>, `1829` <dbl>, `1830` <dbl>, `1831` <dbl>,
    ## #   `1832` <dbl>, `1833` <dbl>, `1834` <dbl>, `1835` <dbl>, `1836` <dbl>,
    ## #   `1837` <dbl>, `1838` <dbl>, `1839` <dbl>, `1840` <dbl>, `1841` <dbl>,
    ## #   `1842` <dbl>, `1843` <dbl>, `1844` <dbl>, `1845` <dbl>, `1846` <dbl>,
    ## #   `1847` <dbl>, `1848` <dbl>, `1849` <dbl>, `1850` <dbl>, `1851` <dbl>,
…
## Data Wrangling

``` r
gapminder_pop_2014 <-
  gapminder_pop_total %>%
  select("country", "population" = "2014")

gapminder_pop_2014
```

    ## # A tibble: 195 x 2
    ##    country             population
    ##    <chr>                    <dbl>
    ##  1 Afghanistan           33400000
    ##  2 Albania                2900000
    ##  3 Algeria               38900000
    ##  4 Andorra                  79200
    ##  5 Angola                26900000
    ##  6 Antigua and Barbuda      92600
    ##  7 Argentina             42600000
    ##  8 Armenia                2910000
    ##  9 Australia             23600000
    ## 10 Austria                8620000
    ## # … with 185 more rows

``` r
gapminder_geo_select <-
  gapminder_geo %>%
  select(
    "country" = "name", 
    "region" = "World bank region", 
    "income_grp" = "World bank, 4 income groups 2017"
  )

gapminder_geo_select
```

    ## # A tibble: 197 x 3
    ##    country             region                     income_grp         
    ##    <chr>               <chr>                      <chr>              
    ##  1 Afghanistan         South Asia                 Low income         
    ##  2 Albania             Europe & Central Asia      Upper middle income
    ##  3 Algeria             Middle East & North Africa Upper middle income
    ##  4 Andorra             Europe & Central Asia      High income        
    ##  5 Angola              Sub-Saharan Africa         Lower middle income
    ##  6 Antigua and Barbuda Latin America & Caribbean  High income        
    ##  7 Argentina           Latin America & Caribbean  Upper middle income
    ##  8 Armenia             Europe & Central Asia      Lower middle income
    ##  9 Australia           East Asia & Pacific        High income        
    ## 10 Austria             Europe & Central Asia      High income        
    ## # … with 187 more rows

``` r
gapminder_emissions_2014 <-
  gapminder_emissions %>%
  select("country", "total_co2_tonnes" = "2014") %>%
  mutate(total_co2_emissions = total_co2_tonnes * 1000) %>%
  select("country", "total_co2_emissions")

gapminder_emissions_2014
```

    ## # A tibble: 192 x 2
    ##    country             total_co2_emissions
    ##    <chr>                             <dbl>
    ##  1 Afghanistan                         294
    ##  2 Albania                            1970
    ##  3 Algeria                            3740
    ##  4 Andorra                            5830
    ##  5 Angola                             1290
    ##  6 Antigua and Barbuda                5740
    ##  7 Argentina                          4790
    ##  8 Armenia                            1900
    ##  9 Australia                         15300
    ## 10 Austria                            6810
    ## # … with 182 more rows
…
df_food_all
```

    ## # A tibble: 1,430 x 10
    ##    region country population income_grp food_category consumption
    ##    <chr>  <chr>        <dbl> <chr>      <chr>               <dbl>
    ##  1 Latin… Argent…   42600000 Upper mid… Pork                10.5 
    ##  2 Latin… Argent…   42600000 Upper mid… Poultry             38.7 
    ##  3 Latin… Argent…   42600000 Upper mid… Beef                55.5 
    ##  4 Latin… Argent…   42600000 Upper mid… Lamb & Goat          1.56
    ##  5 Latin… Argent…   42600000 Upper mid… Fish                 4.36
    ##  6 Latin… Argent…   42600000 Upper mid… Eggs                11.4 
    ##  7 Latin… Argent…   42600000 Upper mid… Milk - inc. …      195.  
    ##  8 Latin… Argent…   42600000 Upper mid… Wheat and Wh…      103.  
    ##  9 Latin… Argent…   42600000 Upper mid… Rice                 8.77
    ## 10 Latin… Argent…   42600000 Upper mid… Soybeans             0   
    ## # … with 1,420 more rows, and 4 more variables: food_consumption_country <dbl>,
    ## #   co2_emission_food <dbl>, co2_food_country <dbl>, total_co2_emissions <dbl>
…
``` r
df_food_animal_wide <-
  df_food_animal %>%
  select(-co2_emission_food, -mean_consumption_cat) %>%
  pivot_wider(
    names_from = food_category,
    values_from = consumption
  )

df_food_animal_wide
```

    ## # A tibble: 130 x 14
    ##    region country population income_grp total_co2_emiss… co2_food_animal…
    ##    <chr>  <chr>        <dbl> <chr>                 <dbl>            <dbl>
    ##  1 Latin… Argent…   42600000 Upper mid…             4790            2141.
    ##  2 East … Austra…   23600000 High inco…            15300            1896.
    ##  3 Europ… Albania    2900000 Upper mid…             1970            1734.
    ##  4 Europ… Iceland     329000 High inco…             6040            1706.
    ##  5 East … New Ze…    4570000 High inco…             7590            1710.
    ##  6 Latin… Uruguay    3400000 High inco…             1980            1598.
    ##  7 Europ… Luxemb…     555000 High inco…            17400            1572.
    ##  8 Latin… Brazil   203000000 Upper mid…             2610            1563.
    ##  9 Europ… Kazakh…   17300000 Upper mid…            14400            1539.
    ## 10 Europ… Sweden     9690000 High inco…             4480            1493.
    ## # … with 120 more rows, and 8 more variables:
    ## #   food_animal_consumption_country <dbl>, Pork <dbl>, Poultry <dbl>,
    ## #   Beef <dbl>, `Lamb & Goat` <dbl>, Fish <dbl>, Eggs <dbl>, `Milk - inc.
    ## #   cheese` <dbl>
…
``` r
df_food_all %>%
  filter(food_category == "Milk - inc. cheese") %>%
  arrange(desc(consumption))
```

    ## # A tibble: 130 x 10
    ##    region country population income_grp food_category consumption
    ##    <chr>  <chr>        <dbl> <chr>      <chr>               <dbl>
    ##  1 Europ… Finland    5460000 High inco… Milk - inc. …        431.
    ##  2 Europ… Nether…   16900000 High inco… Milk - inc. …        341.
    ##  3 Europ… Sweden     9690000 High inco… Milk - inc. …        341.
    ##  4 Europ… Switze…    8210000 High inco… Milk - inc. …        319.
    ##  5 Europ… Albania    2900000 Upper mid… Milk - inc. …        304.
    ##  6 Europ… Lithua…    2970000 High inco… Milk - inc. …        295.
    ##  7 Europ… Ireland    4630000 High inco… Milk - inc. …        292.
    ##  8 Europ… Kazakh…   17300000 Upper mid… Milk - inc. …        288.
    ##  9 Europ… Estonia    1320000 High inco… Milk - inc. …        285.
    ## 10 Europ… Denmark    5660000 High inco… Milk - inc. …        277.
    ## # … with 120 more rows, and 4 more variables: food_consumption_country <dbl>,
    ## #   co2_emission_food <dbl>, co2_food_country <dbl>, total_co2_emissions <dbl>
…
``` r
df_food_animal_cohort 
```

    ## # A tibble: 49 x 14
    ##    region country population income_grp food_category consumption
    ##    <chr>  <chr>        <dbl> <chr>      <chr>               <dbl>
    ##  1 Europ… Iceland     329000 High inco… Pork                21.7 
    ##  2 Europ… Iceland     329000 High inco… Poultry             26.9 
    ##  3 Europ… Iceland     329000 High inco… Beef                13.4 
    ##  4 Europ… Iceland     329000 High inco… Lamb & Goat         21.1 
    ##  5 Europ… Iceland     329000 High inco… Fish                74.4 
    ##  6 Europ… Iceland     329000 High inco… Eggs                 8.24
    ##  7 Europ… Iceland     329000 High inco… Milk - inc. …      226.  
    ##  8 Europ… Luxemb…     555000 High inco… Pork                43.6 
    ##  9 Europ… Luxemb…     555000 High inco… Poultry             21.4 
    ## 10 Europ… Luxemb…     555000 High inco… Beef                29.9 
    ## # … with 39 more rows, and 8 more variables: co2_emission_food <dbl>,
    ## #   total_co2_emissions <dbl>, co2_food_animal_country <dbl>,
    ## #   food_animal_consumption_country <dbl>, mean_consumption_cat <dbl>,
    ## #   mean_consumption_cat_hi <dbl>, mean_consumption_cohort <dbl>,
    ## #   mean_co2_em_food_cohort <dbl>
…
``` r
df_food_animal_high_income
```

    ## # A tibble: 315 x 12
    ##    region country population income_grp food_category consumption
    ##    <chr>  <chr>        <dbl> <chr>      <chr>               <dbl>
    ##  1 East … Austra…   23600000 High inco… Pork                24.1 
    ##  2 East … Austra…   23600000 High inco… Poultry             46.1 
    ##  3 East … Austra…   23600000 High inco… Beef                33.9 
    ##  4 East … Austra…   23600000 High inco… Lamb & Goat          9.87
    ##  5 East … Austra…   23600000 High inco… Fish                17.7 
    ##  6 East … Austra…   23600000 High inco… Eggs                 8.51
    ##  7 East … Austra…   23600000 High inco… Milk - inc. …      234.  
    ##  8 Europ… Iceland     329000 High inco… Pork                21.7 
    ##  9 Europ… Iceland     329000 High inco… Poultry             26.9 
    ## 10 Europ… Iceland     329000 High inco… Beef                13.4 
    ## # … with 305 more rows, and 6 more variables: co2_emission_food <dbl>,
    ## #   total_co2_emissions <dbl>, co2_food_animal_country <dbl>,
    ## #   food_animal_consumption_country <dbl>, mean_consumption_cat <dbl>,
    ## #   mean_consumption_cat_hi <dbl>
…
