…
``` r
food_consumption
```

    ## # A tibble: 1,430 x 4
    ##    country   food_category            consumption co2_emmission
    ##    <chr>     <chr>                          <dbl>         <dbl>
    ##  1 Argentina Pork                           10.5          37.2 
    ##  2 Argentina Poultry                        38.7          41.5 
    ##  3 Argentina Beef                           55.5        1712   
    ##  4 Argentina Lamb & Goat                     1.56         54.6 
    ##  5 Argentina Fish                            4.36          6.96
    ##  6 Argentina Eggs                           11.4          10.5 
    ##  7 Argentina Milk - inc. cheese            195.          278.  
    ##  8 Argentina Wheat and Wheat Products      103.           19.7 
    ##  9 Argentina Rice                            8.77         11.2 
    ## 10 Argentina Soybeans                        0             0   
    ## # … with 1,420 more rows

``` r
gapminder_pop_total
```

    ## # A tibble: 195 x 302
    ##    country `1800` `1801` `1802` `1803` `1804` `1805` `1806` `1807` `1808` `1809`
    ##    <chr>    <dbl>  <dbl>  <dbl>  <dbl>  <dbl>  <dbl>  <dbl>  <dbl>  <dbl>  <dbl>
    ##  1 Afghan… 3.28e6 3.28e6 3.28e6 3.28e6 3.28e6 3.28e6 3.28e6 3.28e6 3.28e6 3.28e6
    ##  2 Albania 4.00e5 4.02e5 4.04e5 4.05e5 4.07e5 4.09e5 4.11e5 4.13e5 4.14e5 4.16e5
    ##  3 Algeria 2.50e6 2.51e6 2.52e6 2.53e6 2.54e6 2.55e6 2.56e6 2.56e6 2.57e6 2.58e6
    ##  4 Andorra 2.65e3 2.65e3 2.65e3 2.65e3 2.65e3 2.65e3 2.65e3 2.65e3 2.65e3 2.65e3
    ##  5 Angola  1.57e6 1.57e6 1.57e6 1.57e6 1.57e6 1.57e6 1.57e6 1.57e6 1.57e6 1.57e6
    ##  6 Antigu… 3.70e4 3.70e4 3.70e4 3.70e4 3.70e4 3.70e4 3.70e4 3.70e4 3.70e4 3.70e4
    ##  7 Argent… 5.34e5 5.20e5 5.06e5 4.92e5 4.79e5 4.66e5 4.53e5 4.41e5 4.29e5 4.17e5
    ##  8 Armenia 4.13e5 4.13e5 4.13e5 4.13e5 4.13e5 4.13e5 4.13e5 4.13e5 4.13e5 4.13e5
    ##  9 Austra… 2.00e5 2.05e5 2.11e5 2.16e5 2.22e5 2.27e5 2.33e5 2.39e5 2.46e5 2.52e5
    ## 10 Austria 3.00e6 3.02e6 3.04e6 3.05e6 3.07e6 3.09e6 3.11e6 3.12e6 3.14e6 3.16e6
    ## # … with 185 more rows, and 291 more variables: `1810` <dbl>, `1811` <dbl>,
    ## #   `1812` <dbl>, `1813` <dbl>, `1814` <dbl>, `1815` <dbl>, `1816` <dbl>,
    ## #   `1817` <dbl>, `1818` <dbl>, `1819` <dbl>, `1820` <dbl>, `1821` <dbl>,
    ## #   `1822` <dbl>, `1823` <dbl>, `1824` <dbl>, `1825` <dbl>, `1826` <dbl>,
    ## #   `1827` <dbl>, `1828` <dbl>, `1829` <dbl>, `1830` <dbl>, `1831` <dbl>,
    ## #   `1832` <dbl>, `1833` <dbl>, `1834` <dbl>, `1835` <dbl>, `1836` <dbl>,
    ## #   `1837` <dbl>, `1838` <dbl>, `1839` <dbl>, `1840` <dbl>, `1841` <dbl>,
    ## #   `1842` <dbl>, `1843` <dbl>, `1844` <dbl>, `1845` <dbl>, `1846` <dbl>,
    ## #   `1847` <dbl>, `1848` <dbl>, `1849` <dbl>, `1850` <dbl>, `1851` <dbl>,
…
``` r
gapminder_geo
```

    ## # A tibble: 197 x 11
    ##    geo   name  four_regions eight_regions six_regions members_oecd_g77 Latitude
    ##    <chr> <chr> <chr>        <chr>         <chr>       <chr>               <dbl>
    ##  1 afg   Afgh… asia         asia_west     south_asia  g77                  33  
    ##  2 alb   Alba… europe       europe_east   europe_cen… others               41  
    ##  3 dza   Alge… africa       africa_north  middle_eas… g77                  28  
    ##  4 and   Ando… europe       europe_west   europe_cen… others               42.5
    ##  5 ago   Ango… africa       africa_sub_s… sub_sahara… g77                 -12.5
    ##  6 atg   Anti… americas     america_north america     g77                  17.0
    ##  7 arg   Arge… americas     america_south america     g77                 -34  
    ##  8 arm   Arme… europe       europe_east   europe_cen… others               40.2
    ##  9 aus   Aust… asia         east_asia_pa… east_asia_… oecd                -25  
    ## 10 aut   Aust… europe       europe_west   europe_cen… oecd                 47.3
    ## # … with 187 more rows, and 4 more variables: Longitude <dbl>, `UN member
    ## #   since` <chr>, `World bank region` <chr>, `World bank, 4 income groups
    ## #   2017` <chr>

``` r
gapminder_pop_2014 <-
  gapminder_pop_total %>%
  select("country", "population" = "2014")

gapminder_pop_2014
```

    ## # A tibble: 195 x 2
    ##    country             population
    ##    <chr>                    <dbl>
    ##  1 Afghanistan           33400000
    ##  2 Albania                2900000
    ##  3 Algeria               38900000
    ##  4 Andorra                  79200
    ##  5 Angola                26900000
    ##  6 Antigua and Barbuda      92600
    ##  7 Argentina             42600000
    ##  8 Armenia                2910000
    ##  9 Australia             23600000
    ## 10 Austria                8620000
    ## # … with 185 more rows

``` r
gapminder_geo_select <-
  gapminder_geo %>%
  select(
    "country" = "name", 
    "region" = "World bank region", 
    "income_grp" = "World bank, 4 income groups 2017"
  )

gapminder_geo_select
```

    ## # A tibble: 197 x 3
    ##    country             region                     income_grp         
    ##    <chr>               <chr>                      <chr>              
    ##  1 Afghanistan         South Asia                 Low income         
    ##  2 Albania             Europe & Central Asia      Upper middle income
    ##  3 Algeria             Middle East & North Africa Upper middle income
    ##  4 Andorra             Europe & Central Asia      High income        
    ##  5 Angola              Sub-Saharan Africa         Lower middle income
    ##  6 Antigua and Barbuda Latin America & Caribbean  High income        
    ##  7 Argentina           Latin America & Caribbean  Upper middle income
    ##  8 Armenia             Europe & Central Asia      Lower middle income
    ##  9 Australia           East Asia & Pacific        High income        
    ## 10 Austria             Europe & Central Asia      High income        
    ## # … with 187 more rows
…
df_food_pop
```

    ## # A tibble: 1,430 x 9
    ##    country food_category consumption co2_emmission population region income_grp
    ##    <chr>   <chr>               <dbl>         <dbl>      <dbl> <chr>  <chr>     
    ##  1 Argent… Pork                10.5          37.2    42600000 Latin… Upper mid…
    ##  2 Argent… Poultry             38.7          41.5    42600000 Latin… Upper mid…
    ##  3 Argent… Beef                55.5        1712      42600000 Latin… Upper mid…
    ##  4 Argent… Lamb & Goat          1.56         54.6    42600000 Latin… Upper mid…
    ##  5 Argent… Fish                 4.36          6.96   42600000 Latin… Upper mid…
    ##  6 Argent… Eggs                11.4          10.5    42600000 Latin… Upper mid…
    ##  7 Argent… Milk - inc. …      195.          278.     42600000 Latin… Upper mid…
    ##  8 Argent… Wheat and Wh…      103.           19.7    42600000 Latin… Upper mid…
    ##  9 Argent… Rice                 8.77         11.2    42600000 Latin… Upper mid…
    ## 10 Argent… Soybeans             0             0      42600000 Latin… Upper mid…
    ## # … with 1,420 more rows, and 2 more variables: co2_food_country <dbl>,
    ## #   food_consumption_country <dbl>
…
